{
    "database": {
        "name": "enduhub_names",
        "user": "analyst",
        "password": "analyst1"
    },

    "categories": [
        {
            "name": "Osoba",
            "search": {
                "query": "SELECT %1 FROM person WHERE %2 ORDER BY %3",
                "columns": [
                    {
                        "raw": "name",
                        "displayed": "Nazwisko"
                    },
                    {
                        "raw": "yob",
                        "displayed": "Rok urodzenia"
                    },
                    {
                        "raw": "runs",
                        "displayed": "Liczba biegów"
                    }
                ],
                "filters": [
                    {
                        "name": "Nazwisko podobne do '%1'",
                        "condition": "UPPER(name) LIKE(UPPER('%%1%'))"
                    },
                    {
                        "name": "Wiek w przedziale [%1, %2] (rocznikowo)",
                        "condition": "EXTRACT(year FROM now()) - yob BETWEEN %1 AND %2"
                    },
                    {
                        "name": "Liczba biegów w przedziale [%1, %2]",
                        "condition": "runs BETWEEN %1 AND %2"
                    },
                    {
                        "name": "Mężczyzna",
                        "condition": "male"
                    },
                    {
                        "name": "Kobieta",
                        "condition": "NOT male"
                    }
                ]
            },
            "passed ids": [
                {
                    "column": "name",
                    "destination column": "person.name",
                    "text type": true
                },
                {
                    "column": "yob",
                    "destination column": "yob",
                    "text type": false
                }
            ]
        },
        {
            "name": "Zawody",
            "search": {
                "query": "SELECT %1 FROM event JOIN run ON (id = event_id) WHERE general_place * 10 <= max_general_place AND %2 GROUP BY name, event_date, distance, registered_participants ORDER BY %3",
                "columns": [
                    {
                        "raw": "name",
                        "displayed": "Nazwa"
                    },
                    {
                        "raw": "event_date",
                        "displayed": "Data"
                    },
                    {
                        "raw": "distance",
                        "displayed": "Dystans"
                    },
                    {
                        "raw": "registered_participants",
                        "displayed": "Liczba biegaczy"
                    },
                    {
                        "raw": "AVG(top_highscore_netto_ratio)",
                        "displayed": "Konkurencyjność biegu"
                    }
                ],
                "filters": [
                    {
                        "name": "Nazwa zawodów podobna do '%1'",
                        "condition": "UPPER(name) LIKE (UPPER('%%1%'))"
                    },
                    {
                        "name": "Liczba biegaczy w przedziale [%1, %2]",
                        "condition": "registered_participants BETWEEN %1 AND %2"
                    },
                    {
                        "name": "Dystans biegu = %1",
                        "condition": "distance = %1"
                    },
                    {
                        "name": "Dystans biegu w przedziale [%1, %2]",
                        "condition": "distance BETWEEN %1 AND %2"
                    },
                    {
                        "name": "Data zawodów w przedziale [%1, %2] (format DD-MM-YYYY)",
                        "condition": "event_date BETWEEN to_date('%1', 'DD-MM-YYYY') AND to_date('%2', 'DD-MM-YYYY')"
                    }

                ]
            },
            "passed ids": [
                {
                    "column": "name",
                    "destination column": "event.name",
                    "text type": true
                },
                {
                    "column": "event_date",
                    "destination column": "event_date",
                    "text type": true
                },
                {
                    "column": "distance",
                    "destination column": "distance",
                    "text type": false
                }
            ]
        },
        {
            "name": "Pojedynczy rekord",
            "search": {
                "query": "SELECT %1 FROM run JOIN event ON (event_id = event.id) JOIN person ON (person_id = person.id) WHERE %2 ORDER BY %3",
                "columns": [
                    {
                        "raw": "person.name",
                        "displayed": "Nazwisko osoby"
                    },
                    {
                        "raw": "event.name",
                        "displayed": "Nazwa zawodów"
                    },
                    {
                        "raw": "distance",
                        "displayed": "Dystans biegu"
                    },
                    {
                        "raw": "event_date",
                        "displayed": "Data zawodów"
                    },
                    {
                        "raw": "top_highscore_netto_ratio",
                        "displayed": "Netto / rekord świata"
                    },
                    {
                        "raw": "general_place",
                        "displayed": "Zajęte miejsce"
                    }
                ],
                "filters": [
                    {
                        "name": "Nazwa zawodów podobna do '%1'",
                        "condition": "UPPER(event.name) LIKE (UPPER('%%1%'))"
                    },
                    {
                        "name": "Nazwisko biegacza podobne do %1",
                        "condition": "UPPER(person.name) LIKE (UPPER('%%1%'))"
                    },
                    {
                        "name": "Dystans biegu = %1",
                        "condition": "distance = %1"
                    },
                    {
                        "name": "Dystans biegu w przedziale [%1, %2]",
                        "condition": "distance BETWEEN %1 AND %2"
                    },
                    {
                        "name": "Data zawodów w przedziale [%1, %2] (format DD-MM-YYYY)",
                        "condition": "event_date BETWEEN to_date('%1', 'DD-MM-YYYY') AND to_date('%2', 'DD-MM-YYYY')"
                    },
                                        {
                        "name": "Mężczyzna",
                        "condition": "male"
                    },
                    {
                        "name": "Kobieta",
                        "condition": "NOT male"
                    }
                ]
            },
            "passed ids": [
                {
                    "column": "person_id",
                    "destination column": "person_id",
                    "text type": false
                },
                {
                    "column": "event_id",
                    "destination column": "event_id",
                    "text type": false
                }
            ]
        }
    ],
    "items": {
        "query": "SELECT %1 FROM person JOIN run ON (id = person_id) JOIN event ON (event_id = event.id) WHERE %2",
        "axes": [
            {
                "column": "result",
                "type": "time interval",
                "label": "Czas"
            },
                                {
                "column": "event_date",
                "type": "date",
                "label": "Data"
            },
            {
                "column": "EXTRACT(month FROM event_date)",
                "type": "int",
                "label": "Numer miesiąca, w którym odbył się bieg"
            },
            {
                "column": "netto",
                "type": "time interval",
                "label": "Czas netto"
            },
            {
                "column": "general_place",
                "type": "int",
                "label": "Miejsce bez kategorii"
            },
            {
                "column": "top_highscore_netto_ratio",
                "type": "number",
                "label": "Netto / rekord świata"
            },
            {
                "column": "CAST(general_place AS REAL) / CAST(max_general_place AS REAL)",
                "type": "number",
                "label": "Względne miejsce bez kategorii"
            },
            {
                "column": "CASE male WHEN true THEN male_place ELSE female_place END",
                "type": "int",
                "label": "Miejsce w kategorii (mężczyźni/kobiety)"
            },
            {
                "column": "CASE male WHEN true THEN (CASE max_male_place WHEN 0 THEN 1.0 ELSE CAST(male_place AS REAL) / CAST(max_male_place AS REAL) END) ELSE (CASE max_male_place WHEN 0 THEN 1.0 ELSE CAST(female_place AS REAL) / CAST(max_female_place AS REAL) END) END",
                "type": "number",
                "label": "Względne miejsce w kategorii (mężczyźni/kobiety)"
            }
        ],
        "grouped by": [
            {
                "column": "distance",
                "type": "numeric string",
                "label": "Dystans biegu"
            },
            {
                "column": "EXTRACT(year FROM event_date)",
                "type": "numeric string",
                "label": "Rok, w którym odbył się bieg"
            },
            {
                "column": "person.name",
                "type": "string",
                "label": "Imię i nazwisko"
            },
            {
                "column": "event.name",
                "type": "string",
                "label": "Nazwa zawodów"
            },
            {
                "column": "CASE male WHEN true THEN 'Mężczyzna' ELSE 'Kobieta' END",
                "type": "string",
                "label": "Płeć"
            }
        ],
        "attribute generation": {
            "destination table": "run",
            "passed ids": [
                {
                    "column": "person_id",
                    "destination column": "person_id",
                    "text type": false
                },
                {
                    "column": "event_id",
                    "destination column": "event_id",
                    "text type": false
                }
            ]
        }
    }
}
